HW3 - Data wrangling and simple modeling with R
…
Problem 2 - Flights into and out of DTW

Use dplyr for all of the questions in this problem.

Find the number of flights into DTW by origin airport. Display the results in descending order by number of flights.

flights %>%
  filter(DEST == "DTW") %>%
  group_by(ORIGIN) %>%
  summarize(num_flights = n()) %>%
  arrange(desc(num_flights))

## # A tibble: 102 x 2
##    ORIGIN num_flights
##    <fct>        <int>
##  1 ATL            457
##  2 ORD            411
##  3 LGA            284
##  4 BOS            283
##  5 MCO            276
##  6 LAS            267
##  7 FLL            262
##  8 TPA            262
##  9 RSW            261
## 10 BWI            255
## # ... with 92 more rows
…
flights %>%
  filter(DEST == "DTW") %>%
  group_by(ORIGIN) %>%
  summarize(num_flights = n(),
          mean_arr_delay = mean(ARR_DELAY, na.rm = TRUE),
          median_arr_delay = median(ARR_DELAY,  na.rm = TRUE),
          min_arr_delay = min(ARR_DELAY, na.rm = TRUE),
          max_arr_delay = max(ARR_DELAY, na.rm = TRUE),
          p5_arr_delay = quantile(ARR_DELAY, 0.05, na.rm = TRUE),
          p95_arr_delay = quantile(ARR_DELAY, 0.95, na.rm = TRUE),
          iqr_arr_delay = IQR(ARR_DELAY, na.rm = TRUE),
          sdev_arr_delay = sd(ARR_DELAY, na.rm = TRUE),
          range_arr_delay = max(ARR_DELAY, na.rm = TRUE) - min(ARR_DELAY, na.rm = TRUE))

## # A tibble: 102 x 11
##    ORIGIN num_flights mean_arr_delay median_arr_delay min_arr_delay
##    <fct>        <int>          <dbl>            <dbl>         <int>
##  1 ABE             73          20.1              -1             -30
##  2 ALB             61          32.9              -3             -35
##  3 APN             31          17.7               1             -32
##  4 ATL            457           6.94             -6.5           -25
##  5 ATW             63          44.6              -2             -34
##  6 AUS             31          -9.84            -18             -31
##  7 AVP             45          49.9               2             -37
##  8 AZO             78           3.53            -11.5           -49
##  9 BDL            101          -6.38            -13             -42
## 10 BGM             58           6.35             -6.5           -33
## # ... with 92 more rows, and 6 more variables: max_arr_delay <int>,
## #   p5_arr_delay <dbl>, p95_arr_delay <dbl>, iqr_arr_delay <dbl>,
## #   sdev_arr_delay <dbl>, range_arr_delay <int>
…
  filter(DEST == "DTW") %>%
  group_by(ORIGIN) %>%
  filter(n() > 100) %>%
  summarize(num_flights = n(),
          mean_arr_delay = mean(ARR_DELAY, na.rm = TRUE),
          median_arr_delay = median(ARR_DELAY,  na.rm = TRUE),
          min_arr_delay = min(ARR_DELAY, na.rm = TRUE),
          max_arr_delay = max(ARR_DELAY, na.rm = TRUE),
          p5_arr_delay = quantile(ARR_DELAY, 0.05, na.rm = TRUE),
          p95_arr_delay = quantile(ARR_DELAY, 0.95, na.rm = TRUE),
          iqr_arr_delay = IQR(ARR_DELAY, na.rm = TRUE),
          sdev_arr_delay = sd(ARR_DELAY, na.rm = TRUE),
          range_arr_delay = max(ARR_DELAY, na.rm = TRUE) - min(ARR_DELAY, na.rm = TRUE))

## # A tibble: 33 x 11
##    ORIGIN num_flights mean_arr_delay median_arr_delay min_arr_delay
##    <fct>        <int>          <dbl>            <dbl>         <int>
##  1 ATL            457          6.94              -6.5           -25
##  2 BDL            101         -6.38             -13             -42
##  3 BNA            195         -0.868             -9             -30
##  4 BOS            283         -3.11              -9             -41
##  5 BUF            111          4.43              -9.5           -38
##  6 BWI            255          0.614             -8             -34
##  7 CLT            198          4.45              -5             -32
##  8 DCA            132         10.1               -8             -27
##  9 DEN            251          5.86              -5             -49
## 10 DFW            210          5.53              -2             -30
## # ... with 23 more rows, and 6 more variables: max_arr_delay <int>,
## #   p5_arr_delay <dbl>, p95_arr_delay <dbl>, iqr_arr_delay <dbl>,
## #   sdev_arr_delay <dbl>, range_arr_delay <int>
…
## Replace NA values in the num_in, num_out with 0.
# https://stackoverflow.com/questions/8161836/how-do-i-replace-na-values-with-zeros-in-an-r-dataframe

inout[is.na(inout)] <- 0

## Compute difference between number of flights in and number out
inout$balance <- inout$num_in - inout$num_out

## Display sorted descending by balance and num_out
inout %>%
  arrange(desc(balance), desc(num_out))

## # A tibble: 107 x 4
##    AIRPORT num_in num_out balance
##    <chr>    <int>   <dbl>   <dbl>
##  1 ORD       1222    1197      25
##  2 ATW         63      42      21
##  3 CMH         58      39      19
##  4 DSM         39      20      19
##  5 DFW        210     193      17
##  6 MKE        161     154       7
##  7 RDU         77      72       5
##  8 BOS        283     279       4
##  9 JFK         36      32       4
## 10 CLT        198     195       3
## # ... with 97 more rows
…
#Hmmm mine has a few more airports listed than yours.  Better check the counts...
flights %>%
  group_by(ORIGIN) %>%
  summarize(num_flights = n()) %>%
  arrange(desc(num_flights)) %>%
  head(21) 

## # A tibble: 21 x 2
##    ORIGIN num_flights
##    <fct>        <int>
##  1 DTW           9683
##  2 ORD           1222
##  3 GRR            903
##  4 ATL            672
##  5 MSP            427
##  6 MDW            379
##  7 FNT            374
##  8 MCO            323
##  9 LGA            315
## 10 DEN            307
## # ... with 11 more rows
…
